tp_systemc/sysc_01_adder/full_adder_main.vcd
$date
     Dec 04, 2018       12:03:57
$end

$version
 SystemC 2.3.1-Accellera --- Oct 12 2018 11:27:26
$end

$timescale
     1 ps
$end

$scope module SystemC $end
$var wire    1  aaaaa  a       $end
$var wire    1  aaaab  b       $end
$var wire    1  aaaac  cin       $end
$var wire    1  aaaad  sum       $end
$var wire    1  aaaae  cout       $end
$upscope $end
$enddefinitions  $end

$comment
All initial values are dumped below at time 0 sec = 0 timescale units.
$end

$dumpvars
0aaaaa
0aaaab
0aaaac
0aaaad
0aaaae
$end

#5000
1aaaaa
1aaaad

#10000
0aaaaa
1aaaab

#15000
1aaaaa
0aaaad
1aaaae

#20000
0aaaaa
0aaaab
1aaaac
1aaaad
0aaaae

#25000
1aaaaa
0aaaad
1aaaae

#30000
0aaaaa
1aaaab

#35000
1aaaaa
1aaaad

#40000
0aaaaa
0aaaab
0aaaac
0aaaad
0aaaae

#45000
1aaaaa
1aaaad

#50000
0aaaaa
1aaaab

#55000
1aaaaa
0aaaad
1aaaae

#60000
0aaaaa
0aaaab
1aaaac
1aaaad
0aaaae

#65000
1aaaaa
0aaaad
1aaaae

#70000
0aaaaa
1aaaab

#75000
1aaaaa
1aaaad

#80000
0aaaaa
0aaaab
0aaaac
0aaaad
0aaaae

#85000
1aaaaa
1aaaad

#90000
0aaaaa
1aaaab

#95000
1aaaaa
0aaaad
1aaaae

