tp_systemc/sysc_03_minimips/results.vcd
$date
     Dec 03, 2018       11:46:41
$end

$version
 SystemC 2.3.1-Accellera --- May 19 2017 17:29:19
$end

$timescale
     1 ps
$end

$scope module SystemC $end
$var wire    1  aaaaa  clk       $end
$var wire    1  aaaab  reset       $end
$var wire   32  aaaac  address [31:0]  $end
$var wire   32  aaaad  datain [31:0]  $end
$var wire   32  aaaae  dataout [31:0]  $end
$var wire   32  aaaaf  cpu_1.pcout [31:0]  $end
$var wire   32  aaaag  cpu_1.fsm_1.state [31:0]  $end
$var wire   32  aaaah  cpu_1.rf32_1.reg(0) [31:0]  $end
$var wire   32  aaaai  cpu_1.rf32_1.reg(1) [31:0]  $end
$var wire   32  aaaaj  cpu_1.rf32_1.reg(2) [31:0]  $end
$var wire   32  aaaak  cpu_1.rf32_1.reg(3) [31:0]  $end
$var wire   32  aaaal  cpu_1.rf32_1.reg(4) [31:0]  $end
$var wire   32  aaaam  cpu_1.rf32_1.reg(5) [31:0]  $end
$var wire   32  aaaan  cpu_1.rf32_1.reg(6) [31:0]  $end
$var wire   32  aaaao  cpu_1.rf32_1.reg(7) [31:0]  $end
$var wire   32  aaaap  cst0out [31:0]  $end
$var wire   32  aaaaq  cst4out [31:0]  $end
$var wire   32  aaaar  pcout [31:0]  $end
$var wire   32  aaaas  rfout [31:0]  $end
$var wire   32  aaaat  adout [31:0]  $end
$var wire   32  aaaau  dtout [31:0]  $end
$var wire   32  aaaav  irsextout [31:0]  $end
$var wire   32  aaaaw  irextout [31:0]  $end
$var wire   32  aaaax  irshiftout [31:0]  $end
$var wire   32  aaaay  mux_x_out [31:0]  $end
$var wire   32  aaaaz  mux_y_out [31:0]  $end
$var wire   32  aaaba  int_dataout [31:0]  $end
$var wire   16  aaabb  irout15_0 [15:0]  $end
$var wire    5  aaabc  irout15_11 [4:0]  $end
$var wire    5  aaabd  irout20_16 [4:0]  $end
$var wire    5  aaabe  irout25_21 [4:0]  $end
$var wire    1  aaabf  write_pc       $end
$var wire    1  aaabg  mux_rf_w       $end
$var wire    1  aaabh  mux_rf_r       $end
$var wire    1  aaabi  write_rf       $end
$var wire    5  aaabj  adr_rf_w [4:0]  $end
$var wire    5  aaabk  adr_rf_r [4:0]  $end
$var wire    1  aaabl  write_ad       $end
$var wire    1  aaabm  write_dt       $end
$var wire    1  aaabn  write_ir       $end
$var wire    3  aaabo  mux_x [2:0]  $end
$var wire    3  aaabp  mux_y [2:0]  $end
$var wire    1  aaabq  mux_addr       $end
$var wire    3  aaabr  amu_op [2:0]  $end
$var wire    1  aaabs  zero       $end
$var wire   32  aaabt  ir [31:0]  $end
$upscope $end
$enddefinitions  $end

$comment
All initial values are dumped below at time 0 sec = 0 timescale units.
$end

$dumpvars
1aaaaa
0aaaab
b0 aaaac
b0 aaaad
b0 aaaae
b0 aaaaf
b0 aaaag
b0 aaaah
b0 aaaai
b0 aaaaj
b0 aaaak
b0 aaaal
b0 aaaam
b0 aaaan
b0 aaaao
b0 aaaap
b100 aaaaq
b0 aaaar
b0 aaaas
b0 aaaat
b0 aaaau
b0 aaaav
b0 aaaaw
b0 aaaax
b0 aaaay
b0 aaaaz
b0 aaaba
b0 aaabb
b0 aaabc
b0 aaabd
b0 aaabe
0aaabf
0aaabg
0aaabh
0aaabi
b0 aaabj
b0 aaabk
0aaabl
0aaabm
1aaabn
b100 aaabo
b0 aaabp
1aaabq
b10 aaabr
1aaabs
b0 aaabt
$end

#0
b100000000000010000000010000000 aaaad

#500
0aaaaa

#1000
1aaaaa
1aaaab
b100 aaaae
b1 aaaag
b10000000 aaaav
b10000000 aaaaw
b1000000000 aaaax
b100 aaaaz
b100 aaaba
b10000000 aaabb
b1 aaabd
1aaabf
b1 aaabj
0aaabn
b0 aaabo
b1 aaabp
0aaabs
b100000000000010000000010000000 aaabt

#1500
0aaaaa

#2000
1aaaaa
b100 aaaac
b10000000 aaaae
b100 aaaaf
b1000 aaaag
b100 aaaar
b10000000 aaaaz
b10000000 aaaba
0aaabf
1aaabl
b1 aaabo
b11 aaabp

#2500
0aaaaa

#3000
1aaaaa
b10001100001000100000000000000000 aaaad
b1001 aaaag
b10000000 aaaat
b10000000 aaaay
b0 aaaaz
1aaabi
0aaabl
1aaabn
b10 aaabo
b0 aaabp

#3500
0aaaaa

#4000
1aaaaa
b1000 aaaae
b1 aaaag
b10000000 aaaai
b10000000 aaaas
b0 aaaav
b0 aaaaw
b0 aaaax
b100 aaaay
b100 aaaaz
b1000 aaaba
b0 aaabb
b10 aaabd
b1 aaabe
1aaabf
0aaabi
b10 aaabj
b1 aaabk
0aaabn
b0 aaabo
b1 aaabp
b10001100001000100000000000000000 aaabt

#4500
0aaaaa

#5000
1aaaaa
b1000 aaaac
b10000000 aaaae
b1000 aaaaf
b10 aaaag
b1000 aaaar
b10000000 aaaay
b0 aaaaz
b10000000 aaaba
0aaabf
1aaabl
b1 aaabo
b11 aaabp

#5500
0aaaaa

#6000
1aaaaa
b10000000 aaaac
b1 aaaad
b0 aaaae
b11 aaaag
b0 aaaay
b0 aaaba
0aaabl
1aaabm
b100 aaabo
b0 aaabp
0aaabq
1aaabs

#6500
0aaaaa

#7000
1aaaaa
b1000 aaaac
b10001100001000110000000000000100 aaaad
b1 aaaae
b100 aaaag
b1 aaaau
b1 aaaay
b1 aaaba
1aaabi
0aaabm
1aaabn
b11 aaabo
1aaabq
0aaabs

#7500
0aaaaa

#8000
1aaaaa
b1100 aaaae
b1 aaaag
b1 aaaaj
b100 aaaav
b100 aaaaw
b10000 aaaax
b1000 aaaay
b100 aaaaz
b1100 aaaba
b100 aaabb
b11 aaabd
1aaabf
0aaabi
b11 aaabj
0aaabn
b0 aaabo
b1 aaabp
b10001100001000110000000000000100 aaabt

#8500
0aaaaa

#9000
1aaaaa
b1100 aaaac
b10000100 aaaae
b1100 aaaaf
b10 aaaag
b1100 aaaar
b10000000 aaaay
b10000100 aaaba
0aaabf
1aaabl
b1 aaabo
b11 aaabp

#9500
0aaaaa

#10000
1aaaaa
b10000100 aaaac
b10 aaaad
b0 aaaae
b11 aaaag
b10000100 aaaat
b0 aaaay
b0 aaaaz
b0 aaaba
0aaabl
1aaabm
b100 aaabo
b0 aaabp
0aaabq
1aaabs

#10500
0aaaaa

#11000
1aaaaa
b1100 aaaac
b0 aaaad
b10 aaaae
b100 aaaag
b10 aaaau
b10 aaaay
b10 aaaba
1aaabi
0aaabm
1aaabn
b11 aaabo
1aaabq
0aaabs

#11500
0aaaaa

#12000
1aaaaa
b10000 aaaae
b1 aaaag
b10 aaaak
b0 aaaas
b0 aaaav
b0 aaaaw
b0 aaaax
b1100 aaaay
b100 aaaaz
b10000 aaaba
b0 aaabb
b0 aaabd
b0 aaabe
1aaabf
0aaabi
b0 aaabj
b0 aaabk
0aaabn
b0 aaabo
b1 aaabp
b0 aaabt

#12500
0aaaaa

#13000
1aaaaa
b10000 aaaac
b10100 aaaae
b10000 aaaaf
b10000 aaaar
b10000 aaaay
b10100 aaaba

#13500
0aaaaa

#14000
1aaaaa
b10100 aaaac
b11000 aaaae
b10100 aaaaf
b10100 aaaar
b10100 aaaay
b11000 aaaba

#14500
0aaaaa

#15000
1aaaaa
b11000 aaaac
b11100 aaaae
b11000 aaaaf
b11000 aaaar
b11000 aaaay
b11100 aaaba

#15500
0aaaaa

#16000
1aaaaa
b11100 aaaac
b100000 aaaae
b11100 aaaaf
b11100 aaaar
b11100 aaaay
b100000 aaaba

#16500
0aaaaa

#17000
1aaaaa
b100000 aaaac
b100100 aaaae
b100000 aaaaf
b100000 aaaar
b100000 aaaay
b100100 aaaba

#17500
0aaaaa

#18000
1aaaaa
b100100 aaaac
b101000 aaaae
b100100 aaaaf
b100100 aaaar
b100100 aaaay
b101000 aaaba

#18500
0aaaaa

#19000
1aaaaa
b101000 aaaac
b101100 aaaae
b101000 aaaaf
b101000 aaaar
b101000 aaaay
b101100 aaaba

#19500
0aaaaa

#20000
1aaaaa
b101100 aaaac
b110000 aaaae
b101100 aaaaf
b101100 aaaar
b101100 aaaay
b110000 aaaba

#20500
0aaaaa

#21000
1aaaaa
b110000 aaaac
b110100 aaaae
b110000 aaaaf
b110000 aaaar
b110000 aaaay
b110100 aaaba

#21500
0aaaaa

#22000
1aaaaa
b110100 aaaac
b111000 aaaae
b110100 aaaaf
b110100 aaaar
b110100 aaaay
b111000 aaaba

#22500
0aaaaa

#23000
1aaaaa
b111000 aaaac
b111100 aaaae
b111000 aaaaf
b111000 aaaar
b111000 aaaay
b111100 aaaba

#23500
0aaaaa

#24000
1aaaaa
b111100 aaaac
b1000000 aaaae
b111100 aaaaf
b111100 aaaar
b111100 aaaay
b1000000 aaaba

#24500
0aaaaa

#25000
1aaaaa
b1000000 aaaac
b1000100 aaaae
b1000000 aaaaf
b1000000 aaaar
b1000000 aaaay
b1000100 aaaba

#25500
0aaaaa

#26000
1aaaaa
b1000100 aaaac
b1001000 aaaae
b1000100 aaaaf
b1000100 aaaar
b1000100 aaaay
b1001000 aaaba

#26500
0aaaaa

#27000
1aaaaa
b1001000 aaaac
b1001100 aaaae
b1001000 aaaaf
b1001000 aaaar
b1001000 aaaay
b1001100 aaaba

#27500
0aaaaa

#28000
1aaaaa
b1001100 aaaac
b1010000 aaaae
b1001100 aaaaf
b1001100 aaaar
b1001100 aaaay
b1010000 aaaba

#28500
0aaaaa

#29000
1aaaaa
b1010000 aaaac
b1010100 aaaae
b1010000 aaaaf
b1010000 aaaar
b1010000 aaaay
b1010100 aaaba

#29500
0aaaaa

#30000
1aaaaa
b1010100 aaaac
b1011000 aaaae
b1010100 aaaaf
b1010100 aaaar
b1010100 aaaay
b1011000 aaaba

#30500
0aaaaa

#31000
1aaaaa
b1011000 aaaac
b1011100 aaaae
b1011000 aaaaf
b1011000 aaaar
b1011000 aaaay
b1011100 aaaba

#31500
0aaaaa

#32000
1aaaaa
b1011100 aaaac
b1100000 aaaae
b1011100 aaaaf
b1011100 aaaar
b1011100 aaaay
b1100000 aaaba

#32500
0aaaaa

#33000
1aaaaa
b1100000 aaaac
b1100100 aaaae
b1100000 aaaaf
b1100000 aaaar
b1100000 aaaay
b1100100 aaaba

#33500
0aaaaa

#34000
1aaaaa
b1100100 aaaac
b1101000 aaaae
b1100100 aaaaf
b1100100 aaaar
b1100100 aaaay
b1101000 aaaba

#34500
0aaaaa

#35000
1aaaaa
b1101000 aaaac
b1101100 aaaae
b1101000 aaaaf
b1101000 aaaar
b1101000 aaaay
b1101100 aaaba

#35500
0aaaaa

#36000
1aaaaa
b1101100 aaaac
b1110000 aaaae
b1101100 aaaaf
b1101100 aaaar
b1101100 aaaay
b1110000 aaaba

#36500
0aaaaa

#37000
1aaaaa
b1110000 aaaac
b1110100 aaaae
b1110000 aaaaf
b1110000 aaaar
b1110000 aaaay
b1110100 aaaba

#37500
0aaaaa

#38000
1aaaaa
b1110100 aaaac
b1111000 aaaae
b1110100 aaaaf
b1110100 aaaar
b1110100 aaaay
b1111000 aaaba

#38500
0aaaaa

#39000
1aaaaa
b1111000 aaaac
b1111100 aaaae
b1111000 aaaaf
b1111000 aaaar
b1111000 aaaay
b1111100 aaaba

#39500
0aaaaa

#40000
1aaaaa
b1111100 aaaac
b10000000 aaaae
b1111100 aaaaf
b1111100 aaaar
b1111100 aaaay
b10000000 aaaba

#40500
0aaaaa

#41000
1aaaaa
b10000000 aaaac
b10000100 aaaae
b10000000 aaaaf
b10000000 aaaar
b10000000 aaaay
b10000100 aaaba

#41500
0aaaaa

#42000
1aaaaa
b10000100 aaaac
b10001000 aaaae
b10000100 aaaaf
b10000100 aaaar
b10000100 aaaay
b10001000 aaaba

#42500
0aaaaa

#43000
1aaaaa
b10001000 aaaac
b10001100 aaaae
b10001000 aaaaf
b10001000 aaaar
b10001000 aaaay
b10001100 aaaba

#43500
0aaaaa

#44000
1aaaaa
b10001100 aaaac
b10010000 aaaae
b10001100 aaaaf
b10001100 aaaar
b10001100 aaaay
b10010000 aaaba

#44500
0aaaaa

#45000
1aaaaa
b10010000 aaaac
b10010100 aaaae
b10010000 aaaaf
b10010000 aaaar
b10010000 aaaay
b10010100 aaaba

#45500
0aaaaa

#46000
1aaaaa
b10010100 aaaac
b10011000 aaaae
b10010100 aaaaf
b10010100 aaaar
b10010100 aaaay
b10011000 aaaba

#46500
0aaaaa

#47000
1aaaaa
b10011000 aaaac
b10011100 aaaae
b10011000 aaaaf
b10011000 aaaar
b10011000 aaaay
b10011100 aaaba

#47500
0aaaaa

#48000
1aaaaa
b10011100 aaaac
b10100000 aaaae
b10011100 aaaaf
b10011100 aaaar
b10011100 aaaay
b10100000 aaaba

#48500
0aaaaa

#49000
1aaaaa
b10100000 aaaac
b10100100 aaaae
b10100000 aaaaf
b10100000 aaaar
b10100000 aaaay
b10100100 aaaba

#49500
0aaaaa

#50000
1aaaaa
b10100100 aaaac
b10101000 aaaae
b10100100 aaaaf
b10100100 aaaar
b10100100 aaaay
b10101000 aaaba

#50500
0aaaaa

#51000
1aaaaa
b10101000 aaaac
b10101100 aaaae
b10101000 aaaaf
b10101000 aaaar
b10101000 aaaay
b10101100 aaaba

#51500
0aaaaa

#52000
1aaaaa
b10101100 aaaac
b10110000 aaaae
b10101100 aaaaf
b10101100 aaaar
b10101100 aaaay
b10110000 aaaba

#52500
0aaaaa

#53000
1aaaaa
b10110000 aaaac
b10110100 aaaae
b10110000 aaaaf
b10110000 aaaar
b10110000 aaaay
b10110100 aaaba

#53500
0aaaaa

#54000
1aaaaa
b10110100 aaaac
b10111000 aaaae
b10110100 aaaaf
b10110100 aaaar
b10110100 aaaay
b10111000 aaaba

#54500
0aaaaa

#55000
1aaaaa
b10111000 aaaac
b10111100 aaaae
b10111000 aaaaf
b10111000 aaaar
b10111000 aaaay
b10111100 aaaba

#55500
0aaaaa

#56000
1aaaaa
b10111100 aaaac
b11000000 aaaae
b10111100 aaaaf
b10111100 aaaar
b10111100 aaaay
b11000000 aaaba

#56500
0aaaaa

#57000
1aaaaa
b11000000 aaaac
b11000100 aaaae
b11000000 aaaaf
b11000000 aaaar
b11000000 aaaay
b11000100 aaaba

#57500
0aaaaa

#58000
1aaaaa
b11000100 aaaac
b11001000 aaaae
b11000100 aaaaf
b11000100 aaaar
b11000100 aaaay
b11001000 aaaba

#58500
0aaaaa

#59000
1aaaaa
b11001000 aaaac
b11001100 aaaae
b11001000 aaaaf
b11001000 aaaar
b11001000 aaaay
b11001100 aaaba

#59500
0aaaaa

#60000
1aaaaa
b11001100 aaaac
b11010000 aaaae
b11001100 aaaaf
b11001100 aaaar
b11001100 aaaay
b11010000 aaaba

#60500
0aaaaa

#61000
1aaaaa
b11010000 aaaac
b11010100 aaaae
b11010000 aaaaf
b11010000 aaaar
b11010000 aaaay
b11010100 aaaba

#61500
0aaaaa

#62000
1aaaaa
b11010100 aaaac
b11011000 aaaae
b11010100 aaaaf
b11010100 aaaar
b11010100 aaaay
b11011000 aaaba

#62500
0aaaaa

#63000
1aaaaa
b11011000 aaaac
b11011100 aaaae
b11011000 aaaaf
b11011000 aaaar
b11011000 aaaay
b11011100 aaaba

#63500
0aaaaa

#64000
1aaaaa
b11011100 aaaac
b11100000 aaaae
b11011100 aaaaf
b11011100 aaaar
b11011100 aaaay
b11100000 aaaba

#64500
0aaaaa

#65000
1aaaaa
b11100000 aaaac
b11100100 aaaae
b11100000 aaaaf
b11100000 aaaar
b11100000 aaaay
b11100100 aaaba

#65500
0aaaaa

#66000
1aaaaa
b11100100 aaaac
b11101000 aaaae
b11100100 aaaaf
b11100100 aaaar
b11100100 aaaay
b11101000 aaaba

#66500
0aaaaa

#67000
1aaaaa
b11101000 aaaac
b11101100 aaaae
b11101000 aaaaf
b11101000 aaaar
b11101000 aaaay
b11101100 aaaba

#67500
0aaaaa

#68000
1aaaaa
b11101100 aaaac
b11110000 aaaae
b11101100 aaaaf
b11101100 aaaar
b11101100 aaaay
b11110000 aaaba

#68500
0aaaaa

#69000
1aaaaa
b11110000 aaaac
b11110100 aaaae
b11110000 aaaaf
b11110000 aaaar
b11110000 aaaay
b11110100 aaaba

#69500
0aaaaa

#70000
1aaaaa
b11110100 aaaac
b11111000 aaaae
b11110100 aaaaf
b11110100 aaaar
b11110100 aaaay
b11111000 aaaba

#70500
0aaaaa

#71000
1aaaaa
b11111000 aaaac
b11111100 aaaae
b11111000 aaaaf
b11111000 aaaar
b11111000 aaaay
b11111100 aaaba

#71500
0aaaaa

#72000
1aaaaa
b11111100 aaaac
b100000000 aaaae
b11111100 aaaaf
b11111100 aaaar
b11111100 aaaay
b100000000 aaaba

#72500
0aaaaa

#73000
1aaaaa
b100000000 aaaac
b100000100 aaaae
b100000000 aaaaf
b100000000 aaaar
b100000000 aaaay
b100000100 aaaba

#73500
0aaaaa

#74000
1aaaaa
b100000100 aaaac
b100001000 aaaae
b100000100 aaaaf
b100000100 aaaar
b100000100 aaaay
b100001000 aaaba

#74500
0aaaaa

#75000
1aaaaa
b100001000 aaaac
b100001100 aaaae
b100001000 aaaaf
b100001000 aaaar
b100001000 aaaay
b100001100 aaaba

#75500
0aaaaa

#76000
1aaaaa
b100001100 aaaac
b100010000 aaaae
b100001100 aaaaf
b100001100 aaaar
b100001100 aaaay
b100010000 aaaba

#76500
0aaaaa

#77000
1aaaaa
b100010000 aaaac
b100010100 aaaae
b100010000 aaaaf
b100010000 aaaar
b100010000 aaaay
b100010100 aaaba

#77500
0aaaaa

#78000
1aaaaa
b100010100 aaaac
b100011000 aaaae
b100010100 aaaaf
b100010100 aaaar
b100010100 aaaay
b100011000 aaaba

#78500
0aaaaa

#79000
1aaaaa
b100011000 aaaac
b100011100 aaaae
b100011000 aaaaf
b100011000 aaaar
b100011000 aaaay
b100011100 aaaba

#79500
0aaaaa

#80000
1aaaaa
b100011100 aaaac
b100100000 aaaae
b100011100 aaaaf
b100011100 aaaar
b100011100 aaaay
b100100000 aaaba

#80500
0aaaaa

#81000
1aaaaa
b100100000 aaaac
b100100100 aaaae
b100100000 aaaaf
b100100000 aaaar
b100100000 aaaay
b100100100 aaaba

#81500
0aaaaa

#82000
1aaaaa
b100100100 aaaac
b100101000 aaaae
b100100100 aaaaf
b100100100 aaaar
b100100100 aaaay
b100101000 aaaba

#82500
0aaaaa

#83000
1aaaaa
b100101000 aaaac
b100101100 aaaae
b100101000 aaaaf
b100101000 aaaar
b100101000 aaaay
b100101100 aaaba

#83500
0aaaaa

#84000
1aaaaa
b100101100 aaaac
b100110000 aaaae
b100101100 aaaaf
b100101100 aaaar
b100101100 aaaay
b100110000 aaaba

#84500
0aaaaa

#85000
1aaaaa
b100110000 aaaac
b100110100 aaaae
b100110000 aaaaf
b100110000 aaaar
b100110000 aaaay
b100110100 aaaba

#85500
0aaaaa

#86000
1aaaaa
b100110100 aaaac
b100111000 aaaae
b100110100 aaaaf
b100110100 aaaar
b100110100 aaaay
b100111000 aaaba

#86500
0aaaaa

#87000
1aaaaa
b100111000 aaaac
b100111100 aaaae
b100111000 aaaaf
b100111000 aaaar
b100111000 aaaay
b100111100 aaaba

#87500
0aaaaa

#88000
1aaaaa
b100111100 aaaac
b101000000 aaaae
b100111100 aaaaf
b100111100 aaaar
b100111100 aaaay
b101000000 aaaba

#88500
0aaaaa

#89000
1aaaaa
b101000000 aaaac
b101000100 aaaae
b101000000 aaaaf
b101000000 aaaar
b101000000 aaaay
b101000100 aaaba

#89500
0aaaaa

#90000
1aaaaa
b101000100 aaaac
b101001000 aaaae
b101000100 aaaaf
b101000100 aaaar
b101000100 aaaay
b101001000 aaaba

#90500
0aaaaa

#91000
1aaaaa
b101001000 aaaac
b101001100 aaaae
b101001000 aaaaf
b101001000 aaaar
b101001000 aaaay
b101001100 aaaba

#91500
0aaaaa

#92000
1aaaaa
b101001100 aaaac
b101010000 aaaae
b101001100 aaaaf
b101001100 aaaar
b101001100 aaaay
b101010000 aaaba

#92500
0aaaaa

#93000
1aaaaa
b101010000 aaaac
b101010100 aaaae
b101010000 aaaaf
b101010000 aaaar
b101010000 aaaay
b101010100 aaaba

#93500
0aaaaa

#94000
1aaaaa
b101010100 aaaac
b101011000 aaaae
b101010100 aaaaf
b101010100 aaaar
b101010100 aaaay
b101011000 aaaba

#94500
0aaaaa

#95000
1aaaaa
b101011000 aaaac
b101011100 aaaae
b101011000 aaaaf
b101011000 aaaar
b101011000 aaaay
b101011100 aaaba

#95500
0aaaaa

#96000
1aaaaa
b101011100 aaaac
b101100000 aaaae
b101011100 aaaaf
b101011100 aaaar
b101011100 aaaay
b101100000 aaaba

#96500
0aaaaa

#97000
1aaaaa
b101100000 aaaac
b101100100 aaaae
b101100000 aaaaf
b101100000 aaaar
b101100000 aaaay
b101100100 aaaba

#97500
0aaaaa

#98000
1aaaaa
b101100100 aaaac
b101101000 aaaae
b101100100 aaaaf
b101100100 aaaar
b101100100 aaaay
b101101000 aaaba

#98500
0aaaaa

#99000
1aaaaa
b101101000 aaaac
b101101100 aaaae
b101101000 aaaaf
b101101000 aaaar
b101101000 aaaay
b101101100 aaaba

#99500
0aaaaa

#100000
1aaaaa
b101101100 aaaac
b101110000 aaaae
b101101100 aaaaf
b101101100 aaaar
b101101100 aaaay
b101110000 aaaba

